{
  "android_install_page": {
    "js_files": [
      "static/js/accordion.js"
    ],
    "output_name": "android-install-page"
  },
  "download_page": {
    "js_files": [
      "static/js/main.js",
      "static/js/vendor/bowser.js",
      "static/js/download.js"
    ],
    "output_name": "download-page"
  },
  "update_page": {
    "js_files": [
      "static/js/vendor/url-search-params.min.js",
      "static/js/vendor/lodash.custom.min.js",
      "static/js/payment/form.js",
      "static//js/payment/stripe/card-modal.js",
      "static//js/payment/stripe/card-payment.js",
      "static//js/payment/stripe/card-subscription.js",
      "static//js/payment/paypal/button-payment.js",
      "static//js/payment/paypal/button-subscription.js",
      "static//js/payment/session.js",
      "static//js/payment/controller.js",
      "static/js/address-masking.js"
    ],
    "output_name": "update"
  },
  "donate_page": {
    "js_files": [
      "static/js/vendor/url-search-params.min.js",
      "static/js/vendor/lodash.custom.min.js",
      "static/js/payment/form.js",
      "static//js/payment/stripe/card-modal.js",
      "static//js/payment/stripe/card-payment.js",
      "static//js/payment/stripe/card-subscription.js",
      "static//js/payment/paypal/button-payment.js",
      "static//js/payment/paypal/button-subscription.js",
      "static//js/payment/session.js",
      "static//js/payment/controller.js",
      "static/js/address-masking.js"
    ],
    "output_name": "donate"
  },
  "installed_page": {
    "js_files": [
      "static/js/vendor/url-search-params.min.js",
      "static/js/vendor/lodash.custom.min.js",
      "static/js/payment/form.js",
      "static//js/payment/stripe/card-modal.js",
      "static//js/payment/stripe/card-payment.js",
      "static//js/payment/stripe/card-subscription.js",
      "static//js/payment/paypal/button-payment.js",
      "static//js/payment/paypal/button-subscription.js",
      "static//js/payment/session.js",
      "static//js/payment/controller.js",
      "static/js/address-masking.js",
      "static/js/pages/installed.js"

    ],
    "output_name": "installed"
  },
  "installed_page_1": {
    "js_files": [
      "static/js/vendor/url-search-params.min.js",
      "static/js/vendor/lodash.custom.min.js",
      "static/js/payment/form-1.js",
      "static//js/payment/stripe/card-modal-1.js",
      "static//js/payment/stripe/card-payment.js",
      "static//js/payment/stripe/card-subscription.js",
      "static//js/payment/paypal/button-payment.js",
      "static//js/payment/paypal/button-subscription.js",
      "static//js/payment/session.js",
      "static//js/payment/controller-1.js",
      "static/js/address-masking.js",
      "static/js/pages/installed.js"

    ],
    "output_name": "installed-1"
  }
}
